<svg version="1.1" viewBox="0 0 700 320" xmlns="http://www.w3.org/2000/svg">
 <g>
  <path d="m0 0v320h700v-320h-700z" fill="#969"/>
  <path d="m257.84 160c0-70.076 22.083-92.159 92.159-92.159 69.782 0 91.865 22.083 92.159 92.159 0.22967 69.782-22.377 91.865-92.159 92.159-70.076 0.23115-92.159-22.377-92.159-92.159" fill="#f2f2f2" stroke-width="1.4722"/>
  <path d="m374.42 103.02v16.281h-81.405v73.264h16.281v24.421h81.405v-32.562h16.281v-65.124h-16.281v-16.281zm-73.264 24.421h73.264v8.1404h-65.124v16.281h-8.1405zm89.545 0h8.1405v24.421h-8.1405v-16.281zm-73.264 16.281h65.124v65.124h-65.124v-56.983zm8.1404 16.281v8.1405h8.1405v-8.1405zm40.702 0v8.1405h8.1405v-8.1405zm-32.562 16.281v24.421h32.562v-24.421zm8.1406 8.1405h16.281v8.1404h-16.281z" fill="#969" stroke-width="4.0702" style="paint-order:markers fill stroke"/>
 </g>
</svg>
